{
  "id": "se-hq-it",
  "products": {
    "drink": [
      {
        "id": "5a1d88bcb3361e00106e4443",
        "title": "Drinks & Cocktails 18+ "
      },
      {
        "id": "5a1d88bcb3361e00106e4449",
        "title": "Sparkling Wine 18+"
      },
      {
        "id": "5a1d88bcb3361e00106e4444",
        "title": "Beer 18+"
      },
      {
        "id": "5a1d88bcb3361e00106e4447",
        "title": "Red Wine 18+"
      }
    ]
  }
}
